{
  "name": "Using fixtures to represent data",
  "email": "hello@cypress.io",
  "body": "Fixtures are a great way to mock data for responses to routes",
  "searchText": "Anoushka Shankar",
  "invalidText": "$$$$$$$$$$$$$$$$$$$$$"
}